%YAML 1.1
%TAG !u! tag:unity3d.com,2011:
--- !u!114 &11400000
MonoBehaviour:
  m_ObjectHideFlags: 0
  m_CorrespondingSourceObject: {fileID: 0}
  m_PrefabInstance: {fileID: 0}
  m_PrefabAsset: {fileID: 0}
  m_GameObject: {fileID: 0}
  m_Enabled: 1
  m_EditorHideFlags: 0
  m_Script: {fileID: 11500000, guid: f6eafdd9e264122418cfb5f36d287d2d, type: 3}
  m_Name: ItemSchemes
  m_EditorClassIdentifier: 
  schemes:
  - schemeName: Item
    foldout: 1
    schemeTypes:
    - name: Prefab
      type: ResourceType
      typeIndex: 13
    - name: Added
      type: BoolType
      typeIndex: 1
    - name: analyzed
      type: BoolType
      typeIndex: 1
    - name: Potential
      type: StringListType
      typeIndex: 14
    - name: Evidence
      type: BoolType
      typeIndex: 1
    - name: Conversation
      type: BoolType
      typeIndex: 1
    - name: ItemName
      type: StringType
      typeIndex: 16
    - name: ItemDetail
      type: StringType
      typeIndex: 16
    - name: Relationship
      type: StringType
      typeIndex: 16
    - name: NPC_Name
      type: StringType
      typeIndex: 16
    - name: Point
      type: IntType
      typeIndex: 10
    - name: SlotIndex
      type: IntType
      typeIndex: 10
    - name: Summary
      type: BoolType
      typeIndex: 1
