%YAML 1.1
%TAG !u! tag:unity3d.com,2011:
--- !u!1 &4816747321793168850
GameObject:
  m_ObjectHideFlags: 0
  m_CorrespondingSourceObject: {fileID: 0}
  m_PrefabInstance: {fileID: 0}
  m_PrefabAsset: {fileID: 0}
  serializedVersion: 6
  m_Component:
  - component: {fileID: 4723065198736659461}
  - component: {fileID: -2846198538325121561}
  m_Layer: 0
  m_Name: DataboxManager_Global
  m_TagString: Untagged
  m_Icon: {fileID: 0}
  m_NavMeshLayer: 0
  m_StaticEditorFlags: 0
  m_IsActive: 1
--- !u!4 &4723065198736659461
Transform:
  m_ObjectHideFlags: 0
  m_CorrespondingSourceObject: {fileID: 0}
  m_PrefabInstance: {fileID: 0}
  m_PrefabAsset: {fileID: 0}
  m_GameObject: {fileID: 4816747321793168850}
  m_LocalRotation: {x: 0, y: 0, z: 0, w: 1}
  m_LocalPosition: {x: 1.4786513, y: -0.23400772, z: -0.22524053}
  m_LocalScale: {x: 1, y: 1, z: 1}
  m_Children: []
  m_Father: {fileID: 0}
  m_RootOrder: 0
  m_LocalEulerAnglesHint: {x: 0, y: 0, z: 0}
--- !u!114 &-2846198538325121561
MonoBehaviour:
  m_ObjectHideFlags: 0
  m_CorrespondingSourceObject: {fileID: 0}
  m_PrefabInstance: {fileID: 0}
  m_PrefabAsset: {fileID: 0}
  m_GameObject: {fileID: 4816747321793168850}
  m_Enabled: 1
  m_EditorHideFlags: 0
  m_Script: {fileID: 11500000, guid: 942a81e20ca7c44b7918c8c01dacb2bc, type: 3}
  m_Name: 
  m_EditorClassIdentifier: 
  data: {fileID: 0}
  Language:
    UseConstant: 1
    ConstantValue: 
    Variable: {fileID: 0}
  Firsttime:
    UseConstant: 1
    ConstantValue: 0
    Variable: {fileID: 0}
