{
	"Exam": {},

	"Test_Lan": {
		"THMale": "ทดสอบ ภาษาไทย",
		"EN": "Testing English"
	},
	//2.Person-Info
		"PI_Name": {
			"THMale": "ชื่อ :",
			"THFemale": "ชื่อ :",
			"EN": "Name :"
		},
		"PI_ID": {
			"THMale": "รหัสนักศึกษา :",
			"THFemale": "รหัสนักศึกษา :",
			"EN": "Student ID :"
		},
		"PI_Confirm": {
			"THMale": "ยืนยัน",
			"THFemale": "ยืนยัน",
			"EN": "Confirm"
		},

	//4.BF Quiz
	"BF_Quiz_TapSkip": {
		"THMale": "แตะเพื่อข้าม",
		"THFemale": "แตะเพื่อข้าม",
		"EN": "Tap to skip"
	},

	//5.Quiz + 6.Result
	"Quiz_Pass": {
		"THMale": "ผ่าน",
		"THFemale": "ผ่าน",
		"EN": "Pass"
	},
		"Quiz_Congrat": {
			"THMale": "ยินดีด้วยคุณสอบผ่าน",
			"THFemale": "ยินดีด้วยคุณสอบผ่าน",
			"EN": "Congratulations ! You pass the exam"
		},
	"Quiz_Failed": {
		"THMale": "ไม่ผ่าน",
		"THFemale": "ไม่ผ่าน",
		"EN": "Failed"
	},
		"Quiz_Try": {
			"THMale": "คะแนนคุณยังไม่ถึง พยายามอีกครั้งในปีหน้า",
			"THFemale": "คะแนนคุณยังไม่ถึง พยายามอีกครั้งในปีหน้า",
			"EN": "You score’s not enough. Try again next semester."
		},
	
	//Btn
	"Quiz_HomeBtn": {
		"THMale": "กลับหน้าหลัง",
		"THFemale": "กลับหน้าหลัง",
		"EN": "Home"
	},
	"Quiz_NextBtn": {
		"THMale": "ต่อไป",
		"THFemale": "ต่อไป",
		"EN": "Next"
	},
	"Quiz_TryAgainBtn": {
		"THMale": "ลองอีกครั้ง",
		"THFemale": "ลองอีกครั้ง",
		"EN": "Try again"
	},


	"2 Understand": {},
	
		"2-Question1": {
		"THMale": "คู่พิพาทมักอ้างความจริงที่ต่างกันไปจนไม่แน่ใจว่าใครพูดความจริง คุณคิดว่าในทางกฎหมายถือว่าสิ่งใดจะเป็น “ความจริง” ต้องมีลักษณะตรงกับข้อใด?",
		"EN": "Client"
		},
			"2-Question1-choice1": {
				"THMale": "ข้ออ้างและเหตุผลของข้ออ้างที่น่าเชื่อถือ",
				"EN": "True Supported Reason"
			},
			"2-Question1-choice2": {
				"THMale": "ข้อเสนอพร้อมเหตุผลของข้อเสนอที่น่าเชื่อถือ",
				"EN": "Add truth"
			},
			"2-Question1-choice3": {
				"THMale": "ข้อเรียกร้องพร้อมเหตุผลของข้อเรียกร้องที่เพียงพอและรับฟังได้",
				"EN": "Understanding Reason"
			},
			"2-Question1-choice4": {
				"THMale": "ความเห็นที่สอดคล้องด้วยเหตุผลอันรับฟังได้",
				"EN": "Understanding Truth"
			},

		"2-Question2": {
		"THMale": "“การตั้งข้อสงสัยในข้อเท็จจริง” คืออะไร?",
		"EN": "..."
		},
			"2-Question2-choice1": {
				"THMale": "การกำหนดประเด็นคลุมเครือที่น่าสนใจค้นหาความจริง",
				"EN": "..."
			},
			"2-Question2-choice2": {
				"THMale": "ความเชื่อบางอย่างที่ถูกเสนอขึ้นมาโดยยังไม่มีสิ่งยืนยันสนับสนุน",
				"EN": "..."
			},
			"2-Question2-choice3": {
				"THMale": "การคาดเดาจากประสบการณ์ที่เคยเจอในลักษณะเดียวกัน",
				"EN": "..."
			},

		"2-Question3": {
		"THMale": "ข้อใดอธิบายคำว่า “ข้อสันนิษฐานความจริง” ตามความเห็นของผู้เชี่ยวชาญได้ถูกต้อง”?",
		"EN": "..."
		},
			"2-Question3-choice1": {
				"THMale": "การคาดเดาข้อเท็จจริงที่ยังขาดพยานหลักฐานสนับสนุนที่หนักแน่น",
				"EN": "..."
			},
			"2-Question3-choice2": {
				"THMale": "ความเชื่อบางอย่างที่ถูกเสนอขึ้นมาโดยยังไม่มีสิ่งยืนยันสนับสนุน",
				"EN": "..."
			},
			"2-Question3-choice3": {
				"THMale": "การคาดเดาจากประสบการณ์ที่เคยเจอในลักษณะเดียวกัน ",
				"EN": "..."
			},

		"2-Question4": {
		"THMale": "คำว่า “ประเด็นข้อพิพาท” ที่ปรากฏในหลักการวิเคราะห์หาประเด็นที่ต้องสืบค้นข้อเท็จจริงมีความหมายตรงกับข้อใด?",
		"EN": "..."
		},
			"2-Question4-choice1": {
				"THMale": "ข้ออ้างข้อเถียงที่บุคคลยกขึ้นอ้างต่อกันจนเป็นเหตุให้เกิดความขัดแย้งและมีผลสำคัญต่อการแพ้ชนะในข้อพิพาท",
				"EN": "..."
			},
			"2-Question4-choice2": {
				"THMale": "ข้ออ้างที่บุคคลเห็นพ้องต้องกันว่าเป็น “ข้อขัดแย้ง” ระหว่างกันและมีผลสำคัญต่อการแพ้ชนะในข้อพิพาท",
				"EN": "..."
			},
			"2-Question4-choice3": {
				"THMale": "ข้อมูลที่คู่พิพาทนำมาใช้สนับสนุนข้ออ้างข้อเถียงต่อกันซึ่งมีผลต่อการแพ้ชนะ",
				"EN": "..."
			},

		"2-Question5": {
		"THMale": "“ประเด็นข้อพิพาทอย่างกว้าง” คืออะไร?",
		"EN": "..."
		},
			"2-Question5-choice1": {
				"THMale": "การระบุหมวดของประเด็นที่โต้เถียงกันแบบกว้างๆ",
				"EN": "..."
			},
			"2-Question5-choice2": {
				"THMale": "การระบุหมวดของประเด็นที่เห็นชอบกันแบบกว้างๆ",
				"EN": "..."
			},
			"2-Question5-choice3": {
				"THMale": "การระบุหมวดของพยานหลักฐานที่สนับสนุนข้อโต้เถียงกันแบบกว้าง",
				"EN": "..."
			},
			"2-Question5-choice4": {
				"THMale": "การระบุหมวดของพยานหลักฐานที่คู่พิพาทยังเห็นแย้งกันแบบกว้าง",
				"EN": "..."
			},





	"3 Apply": {},


		"3-Question1": {
		"THMale": "หากนางสาว ข. ได้กู้ยืมเงินจากนาย ก. ด้วยวาจาไปแล้วจำนวน 100,000 บาทเป็นความจริง แต่ในทางกฎหมาย “ไม่ถือเป็นความจริง” เพราะเหตุใด?",
		"EN": "..."
		},
			"3-Question1-choice1": {
				"THMale": "ขาดพยานหลักฐานใดๆสนับสนุนยืนยันความจริงตามที่กล่าวอ้าง",
				"EN": "..."
			},
			"3-Question1-choice2": {
				"THMale": "ขาดพยานภาพถ่ายสัญญาการกู้ยืมเงินและพยานบุคคลสนับสนุนข้อกล่าวอ้าง",
				"EN": "..."
			},
			"3-Question1-choice3": {
				"THMale": "ขาดพยานบุคคล ภาพถ่ายแสดงการรับหรือจ่ายเงินกัน",
				"EN": "..."
			},
		"3-Question2": {
		"THMale": "หหากนายวินัยได้ไปแจ้งความไว้ต่อเจ้าพนักงานตำรวจมีข้อความว่า “นายไชโยได้กู้ยืมเงินตนเองไปจำนวน 50,000 บาท (ห้าหมื่นบาทถ้วน) บัดนี้เลยกำหนดชำระหนี้มาเกือบสองเดือนแล้ว นายไชโยยังไม่ชำระหนี้คืนเลย...” เมื่อนายไชโยได้รับเรื่องการแจ้งความดังกล่าวจึงไปขอพบนายวินัยและแจ้งแก่นายวินัยว่า “ตนเองไม่ได้กู้ยืมเงินนายวินัยไปแม้แต่บาทเดียวและไม่มีสัญญากู้ยืมใดๆต่อกันอีกด้วย”  ถามว่า ประเด็นพิพาทอย่างกว้างระหว่างนายวินัยกับนายไชโยคือเรื่องใด? ",
		"EN": "..."
		},
			"3-Question2-choice1": {
				"THMale": "กู้ยืมเงิน",
				"EN": "..."
			},
			"3-Question2-choice2": {
				"THMale": "หนี้",
				"EN": "..."
			},
			"3-Question2-choice3": {
				"THMale": "ฉ้อโกง",
				"EN": "..."
			},
			"3-Question2-choice4":{
				"THMale": "นิติกรรมสัญญา",
				"EN": "..."
			},
		"3-Question3": {
		"THMale": "ถ้านักกฎหมายท่านหนึ่งได้สร้างชุดคำถามขึ้นมา 4 ข้อในระหว่างซักถามลูกความเพื่อสืบค้นหาประเด็นพิพาทสำคัญ นักกฎหมายควรเลือกถามคำถามข้อใดเป็นข้อแรก?",
		"EN": "..."
		},
			"3-Question3-choice1": {
				"THMale": "การกู้ยืมเงินครั้งนี้ได้ทำสัญญากู้ไว้หรือไม่? วันนี้นำสัญญามาให้ดูด้วยหรือเปล่า?",
				"EN": "..."
			},
			"3-Question3-choice2": {
				"THMale": "การกู้ยืมครั้งนี้คิดดอกเบี้ยกันไว้หรือไม่? คิดอัตราร้อยละเท่าไหร่?",
				"EN": "..."
			},
			"3-Question3-choice3": {
				"THMale": "การกู้ยืมได้ตกลงทำสัญญากันที่ไหน?",
				"EN": "..."
			},
			"3-Question3-choice4":{
				"THMale": "การกู้ยืมครั้งนี้มีพยานบุคคลหรือไม่? ชื่ออะไรบ้าง?",
				"EN": "..."
			},
			"3-Question3-choice5":{
				"THMale": "การกู้ยืมเงินครั้งนี้นำเงินไปทำอะไร?",
				"EN": "..."
			},
	




	"4 Analyze": {},


		"4-Question1": {
		"THMale": "หมอคนกับหมอความต่างต้องค้นหาความจริงก่อนการแก้ไขปัญหาใดๆ ถามว่าการพิสูจน์ความจริงทางกฎหมายกับทางการแพทย์มีความต่างกันอย่างไร?",
		"EN": "..."
		},
			"4-Question1-choice1": {
				"THMale": "ความจริงในทางการแพทย์ยืนยันด้วยข้อมูลทางวิทยาศาสตร์แต่ความจริงในทางกฎหมายยืนยันความสมเหตุสมผลของทุกสิ่งที่เกี่ยวข้อง",
				"EN": "..."
			},
			"4-Question1-choice2": {
				"THMale": "ความจริงในทางกฎหมายยืนยันด้วยข้อมูลทางวิทยาศาสตร์แต่ทางการแพทย์ยืนยันด้วยความสมเหตุสมผลของทุกสิ่งที่เกี่ยวข้อง",
				"EN": "..."
			},
			"4-Question1-choice3": {
				"THMale": "ความจริงในทางการแพทย์ยืนยันด้วยข้อมูลทางกฎหมายและข้อมูลทางวิทยาศาสตร์",
				"EN": "333"
			},
			"4-Question1-choice4": {
				"THMale": "ถูกทุกข้อ",
				"EN": "333"
			},
		"4-Question2": {
		"THMale": "ระหว่าง “ข้อกฎหมาย” กับ “ข้อเท็จจริง” ต้องคำนึงถึงสิ่งใดมาเป็นอันดับแรก?",
		"EN": "..."
		},
			"4-Question2-choice1": {
				"THMale": "ข้อเท็จจริง",
				"EN": "..."
			},
			"4-Question2-choice2": {
				"THMale": "ข้อกฎหมาย",
				"EN": "..."
			},
			"4-Question2-choice3": {
				"THMale": "ข้อเท็จจริงหรือข้อกฎหมายก่อนหลังก็ได้",
				"EN": "..."
			},
		"4-Question3": {
		"THMale": "คุณคิดว่าหลักคิดพื้นฐานที่สำคัญในการสืบค้นข้อเท็จจริงเพื่องานกฎหมายคือข้อใด",
		"EN": "..."
		},
			"4-Question3-choice1": {
				"THMale": "สืบค้นข้อเท็จจริงโดยปราศจาก “อคติ”",
				"EN": "..."
			},
			"4-Question3-choice2": {
				"THMale": "การรับฟังความคิดเห็นของลูกความเป็นสำคัญ",
				"EN": "..."
			},
			"4-Question3-choice3": {
				"THMale": "การนำประสบการณ์จากคดีอื่นๆมาเป็นบรรทัดฐานการทำงาน",
				"EN": "..."
			},
	

	"5 Evaluate": {},


		"5-Question1": {
		"THMale": "งานสืบค้นข้อเท็จจริงมีความสำคัญต่องานกฎหมายอย่างไร?",
		"EN": "..."
		},
			"5-Question1-choice1": {
				"THMale": "ทำให้ได้ข้อความจริงที่เพียงพอและน่าเชื่อถือก่อนนำไปใช้ในทางกฎหมาย",
				"EN": "..."
			},
			"5-Question1-choice2": {
				"THMale": "เพื่อทราบว่าความเท็จเป็นอย่างไรก่อนนำไปใช้ในทางกฎหมาย",
				"EN": "..."
			},
			"5-Question1-choice3": {
				"THMale": "ทำให้งานให้คำปรึกษากฎหมายมีความน่าเชื่อถือมากยิ่งขึ้น",
				"EN": "333"
			},
			"5-Question1-choice4": {
				"THMale": "ทำให้สามารถนำข้อเท็จจริงมาตีความกฎหมายได้อย่างชัดแจ้ง",
				"EN": "333"
			}
}
	