{
"GG_Mission6": {},
	"GG_Mission6_1": {
		"THMale": "ก่อนอื่นต้องเตรียมเครื่องบันทึกเสียงก่อน",
		"THFemale": "ก่อนอื่นต้องเตรียมเครื่องบันทึกเสียงก่อน",
		"EN": "First thing first, I have to prepare recorder"
	},
	"GG_Mission6_2": {
		"THMale": "ถ้าเปิดเครื่องบันทึกเสียงก่อนถามคำถามฉันก็สามารถนำบทสนทนามาอ่านได้ในสมุดได้",
		"THFemale": "ถ้าเปิดเครื่องบันทึกเสียงก่อนถามคำถามฉันก็สามารถนำบทสนทนามาอ่านได้ในสมุดได้",
		"EN": "If i recording, I can store a conversation in my notebook."
	},
	//Unlock Recorder
	"GG_Mission6_2_RecUnlock": {
		"THMale": "ปลดล็อค เครื่องบันทึกเสียง",
		"THFemale": "ปลดล็อค เครื่องบันทึกเสียง",
		"EN": "Recorder Unlocked!"
	},
	"GG_Mission6_3": {
		"THMale": "โอเคมาหาข้อมูลเพิ่มเติมกัน",
		"THFemale": "โอเคมาหาข้อมูลเพิ่มเติมกัน",
		"EN": "Okay, Let's get more information."
	},
	//Tel. Person
	"GG_Mission6_4_Paew": {
		"THMale": "แพรว",
		"THFemale": "แพรว",
		"EN": "Paew"
	},
	"GG_Mission6_5": {
		"THMale": "สวัสดีครับคุณแพรว ผมทนายนะครับ",
		"THFemale": "สวัสดีครับคุณแพรว ฉันทนายนะคะ",
		"EN": "Hello! Mrs.Paew, I'm Lawyer."
	},
	"GG_Mission6_6": {
		"THMale": "ค่ะคุณทนายมีเรื่องอะไรเหรอคะ?",
		"THFemale": "ค่ะคุณทนายมีเรื่องอะไรเหรอคะ?",
		"EN": "Hello! Lawyer, What's matter?"
	},
	//Menu
	"GG_Mission6_7_1": {
		"THMale": "ถามคำถามเพิ่มเติม",
		"THFemale": "ถามคำถามเพิ่มเติม",
		"EN": "Ask for question."
	},
	"GG_Mission6_7_2": {
		"THMale": "ขออนุญาตอัดเสียงระหว่างสนทนา",
		"THFemale": "ขออนุญาตอัดเสียงระหว่างสนทนา",
		"EN": "Ask for recording conversation permission."
	},
	"GG_Mission6_8": {
		"THMale": "ผมต้องขออนุญาตอัดเสียงระหว่างสนทนานะครับเพื่อความสะดวกในการทำงานครับ",
		"THFemale": "ฉันต้องขออนุญาตอัดเสียงระหว่างสนทนานะคะเพื่อความสะดวกในการทำงานค่ะ",
		"EN": "I'd like to recording what we talk about to make me work easier."
	},
	"GG_Mission6_9": {
		"THMale": "ได้ค่ะๆ",
		"THFemale": "ได้ค่ะๆ",
		"EN": "ํYes yes."
	},
	"GG_Mission6_10": {
		"THMale": "ถ้ากดปุ่ม Record ฉันสามารถกลับมาอ่านบทสนทนาที่ได้ในสมุด",
		"THFemale": "ถ้ากดปุ่ม Record ฉันสามารถกลับมาอ่านบทสนทนาที่ได้ในสมุด",
		"EN": "If i press Record button i can read back the conversation."
	},

	//Cut though here if not record
	"GG_Mission6_11": {
		"THMale": "ผมมีคำถามที่อยากต้องการข้อมูลเพิ่มเติมครับ",
		"THFemale": "ฉันมีคำถามที่อยากต้องการข้อมูลเพิ่มเติมค่ะ",
		"EN": "I have more questions to ask."
	},
	"GG_Mission6_12": {
		"THMale": "ได้ค่ะรบกวนช่วยรีบๆหน่อยนะคะดิฉันกำลังรอประชุมงานสำคัญอยู่",
		"THFemale": "ได้ค่ะรบกวนช่วยรีบๆหน่อยนะคะดิฉันกำลังรอประชุมงานสำคัญอยู่",
		"EN": "Okay, but please hurry i'm in the conference."
	},

	//Guide
	"GG_Mission6_13": {
		"THMale": "เลือกคำถามที่คิดว่าสำคัญ 4 คำถาม",
		"THFemale": "เลือกคำถามที่คิดว่าสำคัญ 4 คำถาม",
		"EN": "Please choose 4 important questions."
	},
	"GG_Mission6_14": {
		"THMale": "ถ้าเป็นไปได้เลือกตามลำดับความสำคัญสุดก่อน",
		"THFemale": "ถ้าเป็นไปได้เลือกตามลำดับความสำคัญสุดก่อน",
		"EN": "Choose very important first, If it's possible."
	},

	//ChoiceMenu
	"GG_Mission6_15": {
		"THMale": "ความยินยอมของทายาทคนอื่น?",
		"THFemale": "ความยินยอมของทายาทคนอื่น?",
		"EN": "Approve from other cousin"
	},
		"GG_Mission6_15_1": {
			"THMale": "พี่น้องของคุณแพรวว่าอย่างไรบ้างครับเกี่ยวกับเรื่องที่ให้คุณแพรวเป็นผู้จัดตั้งมรดก",
			"THFemale": "พี่น้องของคุณแพรวว่าอย่างไรบ้างคะเกี่ยวกับเรื่องที่ให้คุณแพรวเป็นผู้จัดตั้งมรดก",
			"EN": "What's about your brother and sister talking about .."
		},
		"GG_Mission6_15_2": {
			"THMale": "คิดว่าพี่น้องดิฉันไม่มีไครคัดค้านอะไรนะคะ แต่ก็ไม่รู้ถ้าเอาเข้าจริงๆแล้วจะเป็นอย่างที่บอกหรือเปล่า.",
			"THFemale": "คิดว่าพี่น้องดิฉันไม่มีไครคัดค้านอะไรนะคะ แต่ก็ไม่รู้ถ้าเอาเข้าจริงๆแล้วจะเป็นอย่างที่บอกหรือเปล่า.",
			"EN": "No one not approve me."
		},
		"GG_Mission6_15_3": {
			"THMale": "เพราะยังไม่มีไครพูดถึงเรื่องนี้กันเลย",
			"THFemale": "เพราะยังไม่มีไครพูดถึงเรื่องนี้กันเลย",
			"EN": "No one Talking about this."
		},
		"GG_Mission6_15_4": {
			"THMale": "ส่วนญาติคนอื่นๆ ลุง ป้า น้า อา ไม่น่าเกี่ยวข้องกันใช่ไหมคะ?",
			"THFemale": "ส่วนญาติคนอื่นๆ ลุง ป้า น้า อา ไม่น่าเกี่ยวข้องกันใช่ไหมคะ?",
			"EN": "and uncle and aunt not involve with, i'm right?"
		},
		"GG_Mission6_15_5": {
			"THMale": "ยังไม่แน่ใจนะครับตอนนี้ผมกำลังรวบรวมข้อมูลอยู่",
			"THFemale": "ยังไม่แน่ใจนะคะตอนนี้ฉันกำลังรวบรวมข้อมูลอยู่",
			"EN": "i'm not sure."
		},

	"GG_Mission6_16": {
		"THMale": "สถานะสมรสของพี่น้องคนอื่นและจำนวนหลานๆของเจ้ามรดก?",
		"THFemale": "สถานะสมรสของพี่น้องคนอื่นและจำนวนหลานๆของเจ้ามรดก?",
		"EN": "Marriage status of brother-sister and dencendants."
	},	
		"GG_Mission6_16_1": {
			"THMale": "พวกสถานะสมรสของคุณแพรวและพี่น้องคุณแพรวเป็นยังไงบ้างครับ",
			"THFemale": "พวกสถานะสมรสของคุณแพรวและพี่น้องคุณแพรวเป็นยังไงบ้างคะ",
			"EN": "How about marriage status of brother-sister and dencendants."
		},
		"GG_Mission6_16_2": {
			"THMale": "น้องคนกลางแต่งงานแล้วค่ะแต่น้องคนเล็กยังไม่ได้แต่งงานค่ะเพราะอายุ19",
			"THFemale": "น้องคนกลางแต่งงานแล้วค่ะแต่น้องคนเล็กยังไม่ได้แต่งงานค่ะเพราะอายุ19",
			"EN": "2nd Brother already marriage but lil'brother didn't."
		},
		"GG_Mission6_16_3": {
			"THMale": "ส่วนดิฉันยังโสดค่ะคิดว่าตอนแก่ตัวไปคงให้น้องๆกับหลานดูแล",
			"THFemale": "ส่วนดิฉันยังโสดค่ะคิดว่าตอนแก่ตัวไปคงให้น้องๆกับหลานดูแล",
			"EN": "and I'm single."
		},


	"GG_Mission6_17": {
		"THMale": "ทรัพสินทั้งหลายของเจ้ามรดก?",
		"THFemale": "ทรัพสินทั้งหลายของเจ้ามรดก?",
		"EN": "All tressure of your family."
	},
		"GG_Mission6_17_1": {
			"THMale": "พ่อแม่ของคุณแพรวที่เป็นเจ้ามรดกมีทรัพย์สินอะไรบ้างครับ",
			"THFemale": "พ่อแม่ของคุณแพรวที่เป็นเจ้ามรดกมีทรัพย์สินอะไรบ้างคะ",
			"EN": "What's your father and mother all tressure."
		},
		"GG_Mission6_17_2": {
			"THMale": "เรื่องนี้คงต้องกลับไปดูให้แน่ใจอีกครั้งค่ะแต่เท่าที่จำได้คือมี บ้านปัจจุบันที่ดิฉันอยู่กับพ่อแม่นี่แหละค่ะ",
			"THFemale": "เรื่องนี้คงต้องกลับไปดูให้แน่ใจอีกครั้งค่ะแต่เท่าที่จำได้คือมี บ้านปัจจุบันที่ดิฉันอยู่กับพ่อแม่นี่แหละค่ะ",
			"EN": "I'm not sure.As i remember ... House?"
		},
		"GG_Mission6_17_3": {
			"THMale": "แล้วก็ตึกแถวที่เป็นสำนักงานที่ท่านทำธุรกิจนั้นแหละ",
			"THFemale": "แล้วก็ตึกแถวที่เป็นสำนักงานที่ท่านทำธุรกิจนั้นแหละะ",
			"EN": "Bussiness Building"
		},

		"GG_Mission6_17_4": {
			"THMale": "เอ่อ...แล้วก็น่าจะมีพวกสมุดบัญชี เงินฝากธนาคาร 3 แห่งที่เขาไม่ยอม ให้เราไปจัดการเบิกถอนอะไรเลยตอนนี้ค่ะ",
			"THFemale": "เอ่อ...แล้วก็น่าจะมีพวกสมุดบัญชี เงินฝากธนาคาร 3 แห่งที่เขาไม่ยอม ให้เราไปจัดการเบิกถอนอะไรเลยตอนนี้ค่ะ",
			"EN": "Bank accounts"
		},
		"GG_Mission6_17_5": {
			"THMale": "ส่วนรถยนต์ที่ท่านสองคนใช้อยู่ตอนนี้ก็เป็นชื่อดิฉันเองอยู่แล้ว",
			"THFemale": "ส่วนรถยนต์ที่ท่านสองคนใช้อยู่ตอนนี้ก็เป็นชื่อดิฉันเองอยู่แล้ว",
			"EN": "Private Car"
		},
		"GG_Mission6_17_6": {
			"THMale": "ส่วนแก้วแหวนเงินทองทั้งหมดก็น่าจะเก็บรวมไว้กับเอกสารสำคัญอื่นๆที่อยู่กับตู้นิรภัยของธนาคาร",
			"THFemale": "ส่วนแก้วแหวนเงินทองทั้งหมดก็น่าจะเก็บรวมไว้กับเอกสารสำคัญอื่นๆที่อยู่กับตู้นิรภัยของธนาคาร",
			"EN": "Other tressure all together in safe at bank."
		},
		"GG_Mission6_17_7": {
			"THMale": "อันนี้ไม่น่ายากเพราะดิฉันก็สามารถเปิดตู้นิรภัยได้ด้วย",
			"THFemale": "อันนี้ไม่น่ายากเพราะดิฉันก็สามารถเปิดตู้นิรภัยได้ด้วย",
			"EN": "And i can acess to it."
		},

	"GG_Mission6_18": {
		"THMale": "ยินดีที่จะรับเป็นผู้จัดการมรดกไหม?",
		"THFemale": "ยินดีที่จะรับเป็นผู้จัดการมรดกไหม?",
		"EN": "Agree to be tressure manager?"
	},
		"GG_Mission6_18_1": {
			"THMale": "คุณแพรวยินดีที่จะเป็นผู้จัดการมรดกไหมครับ?",
			"THFemale": "คุณแพรวยินดีที่จะเป็นผู้จัดการมรดกไหมคะ?",
			"EN": "ํYou agree to be tressure manager?"
		},
		"GG_Mission6_18_2": {
			"THMale": "ดิฉันก็หนักใจนะคะ ถ้าเลือกได้คงไม่รับดีกว่าค่ะ แต่ก็ต้องไปปรึกษากับน้องๆอีกสองคนก่อนว่าจะเอาอย่างไร",
			"THFemale": "ดิฉันก็หนักใจนะคะ ถ้าเลือกได้คงไม่รับดีกว่าค่ะ แต่ก็ต้องไปปรึกษากับน้องๆอีกสองคนก่อนว่าจะเอาอย่างไร",
			"EN": "Have to talk with bro-sis"
		},
		"GG_Mission6_18_3": {
			"THMale": "คือถ้ามองว่าเราเป็นพี่คนโตก็คงจำนนด้วยเหตุผล แต่ก็ไม่แน่เสมอไปนะคะ น้องๆอาจจะอยากกระโดดเข้ามาช่วยเรื่องนี้ก็ได้",
			"THFemale": "คือถ้ามองว่าเราเป็นพี่คนโตก็คงจำนนด้วยเหตุผล แต่ก็ไม่แน่เสมอไปนะคะ น้องๆอาจจะอยากกระโดดเข้ามาช่วยเรื่องนี้ก็ได้",
			"EN": "ํif bro-sis can help"
		},

	"GG_Mission6_19": {
		"THMale": "เรื่องความวิกลจริต ไร้ความสามารถ?",
		"THFemale": "เรื่องความวิกลจริต ไร้ความสามารถ?",
		"EN": "ํAbout your condition?"
	},
		"GG_Mission6_19_1": {
			"THMale": "คุณแพรวคิดว่าตัวเองเป็นบุคคลไร้ความสามารถ หรือวิกลจริตอะไรหรือเปล่าครับ?",
			"THFemale": "คุณแพรวคิดว่าตัวเองเป็นบุคคลไร้ความสามารถ หรือวิกลจริตอะไรหรือเปล่าคะ?",
			"EN": "ํYou think that you've bad mental condition or amputee?"
		},
		"GG_Mission6_19_2": {
			"THMale": "จริงๆคำถามนี้ไม่น่าจะถามเลยนะคะ! ก็เห็นๆกันอยู่ว่าดิฉันทำงานมาจนมี ตำแหน่งผู้จัดการฝ่ายบุคคลของโรงแรมดังขนาดนี้",
			"THFemale": "จริงๆคำถามนี้ไม่น่าจะถามเลยนะคะ! ก็เห็นๆกันอยู่ว่าดิฉันทำงานมาจนมี ตำแหน่งผู้จัดการฝ่ายบุคคลของโรงแรมดังขนาดนี้",
			"EN": "ํWhat's a question..."
		},
		"GG_Mission6_19_3": {
			"THMale": "อายุเกิน20 ปีแน่นอนค่ะ ส่วนการเงินก็เพิ่งปลดภาระหนี้กู้บ้านไปก็สบายแล้วค่ะ",
			"THFemale": "อายุเกิน20 ปีแน่นอนค่ะ ส่วนการเงินก็เพิ่งปลดภาระหนี้กู้บ้านไปก็สบายแล้วค่ะ",
			"EN": "I'm 20 and no rent."
		},
		"GG_Mission6_19_4": {
			"THMale": "แต่กำลังว่าอยากจะซื้อรถยนต์คันใหม่เอาที่ประหยัดน้ำมันสุดๆค่ะ",
			"THFemale": "แต่กำลังว่าอยากจะซื้อรถยนต์คันใหม่เอาที่ประหยัดน้ำมันสุดๆค่ะ",
			"EN": "I want to buy a car"
		},
		"GG_Mission6_19_5": {
			"THMale": "ก็ดูๆอยู่ แล้วก็เรื่องจะขอสินเชื่อจากธนาคารเพื่อไปลงทุนค้าขาย",
			"THFemale": "ก็ดูๆอยู่ แล้วก็เรื่องจะขอสินเชื่อจากธนาคารเพื่อไปลงทุนค้าขาย",
			"EN": "and rent from bank for business"
		},

	"GG_Mission6_20": {
		"THMale": "คุณพ่อและแม่ทำพินัยกรรมไว้หรือเปล่า?",
		"THFemale": "คุณพ่อและแม่ทำพินัยกรรมไว้หรือเปล่า?",
		"EN": "Did Your father and mother do testament?"
	},
		"GG_Mission6_20_1": {
			"THMale": "คุณพ่อและแม่คุณแพรวได้ทำพินัยกรรมไว้หรือเปล่าครับ",
			"THFemale": "คุณพ่อและแม่คุณแพรวได้ทำพินัยกรรมไว้หรือเปล่าคะ",
			"EN": "Did Your father and mother do testament?"
		},
		"GG_Mission6_20_2": {
			"THMale": "เรื่องพินัยกรรมนี้...ไม่แน่ใจ พ่อแม่ไม่เคยพูดถึง",
			"THFemale": "เรื่องพินัยกรรมนี้...ไม่แน่ใจ พ่อแม่ไม่เคยพูดถึง",
			"EN": "They did talking about .."
		},
		"GG_Mission6_20_3": {
			"THMale": "เคยได้ยินพ่อถามเพื่อนดิฉันที่เป็นนักกฎหมายตอนมาเที่ยวที่บ้านว่าทำพินัยกรรมต้องทำอย่างไร",
			"THFemale": "เคยได้ยินพ่อถามเพื่อนดิฉันที่เป็นนักกฎหมายตอนมาเที่ยวที่บ้านว่าทำพินัยกรรมต้องทำอย่างไร",
			"EN": "i only hear that .."
		},
		"GG_Mission6_20_4": {
			"THMale": "เพื่อนก็อธิบายให้ฟัง แกก็บ่นเลยว่าทำไมยุ่งยากจัง ว่าจะไปที่อำเภอให้ช่วยทำดีกว่า",
			"THFemale": "เพื่อนก็อธิบายให้ฟัง แกก็บ่นเลยว่าทำไมยุ่งยากจัง ว่าจะไปที่อำเภอให้ช่วยทำดีกว่า",
			"EN": "it's compicated"
		},
		"GG_Mission6_20_5": {
			"THMale": "ตอนนั้นแม่อยู่ด้วย แม่ยังหยอกพ่อเลยว่า “ทำอย่างกับเป็นเศรษฐีพันล้าน”",
			"THFemale": "ตอนนั้นแม่อยู่ด้วย แม่ยังหยอกพ่อเลยว่า “ทำอย่างกับเป็นเศรษฐีพันล้าน”",
			"EN": "Mother said"
		},
		"GG_Mission6_20_6": {
			"THMale": "ทุกคนก็หัวเราะกันใหญ่เลย หลังจากนั้นก็ไม่เห็นพูดเรื่องนี้อีกเลย แต่ไม่รู้ว่าพี่น้องคนอื่นหรือญาติผู้ใหญ่จะรู้เรื่องนี้บ้างหรือเปล่า",
			"THFemale": "ทุกคนก็หัวเราะกันใหญ่เลย หลังจากนั้นก็ไม่เห็นพูดเรื่องนี้อีกเลย แต่ไม่รู้ว่าพี่น้องคนอื่นหรือญาติผู้ใหญ่จะรู้เรื่องนี้บ้างหรือเปล่า",
			"EN": "everyone laugh"
		},
		"GG_Mission6_20_7": {
			"THMale": "แต่ไม่รู้ว่าพี่น้องคนอื่นหรือญาติผู้ใหญ่จะรู้เรื่องนี้บ้างหรือเปล่า",
			"THFemale": "แต่ไม่รู้ว่าพี่น้องคนอื่นหรือญาติผู้ใหญ่จะรู้เรื่องนี้บ้างหรือเปล่า",
			"EN": "i don't know that ."
		},
	"GG_Mission6_21": {
		"THMale": "เจ้ามรดกเสียชีวิตนานแล้วเท่าไหร่?",
		"THFemale": "เจ้ามรดกเสียชีวิตนานแล้วเท่าไหร่?",
		"EN": "How long that your parent die?"
	},
		"GG_Mission6_21_1": {
			"THMale": "คุณพ่อและแม่คุณกวางเสียชีวิตนานเท่าไหร่แล้วครับ",
			"THFemale": "คุณพ่อและแม่คุณกวางเสียชีวิตนานเท่าไหร่แล้วคะ",
			"EN": "How long that your parent die?"
		},
		"GG_Mission6_21_2": {
			"THMale": "อ๋อ..ค่ะ..ก็ตามที่บอกคุณทนายไปก่อนหน้านี้แล้วไงค่ะว่าท่านเสียชีวิต ไปเกือบเดือนแล้วค่ะ",
			"THFemale": "อ๋อ..ค่ะ..ก็ตามที่บอกคุณทนายไปก่อนหน้านี้แล้วไงค่ะว่าท่านเสียชีวิต ไปเกือบเดือนแล้วค่ะ",
			"EN": "Around a month"
		},
		"GG_Mission6_21_3": {
			"THMale": "อย่างไรก็ดี คุณทนายอย่าลืมเรียกถามให้ดิฉันเอาใบมรณะบัตรมาให้ ยืนยันว่าท่านเสียชีวิตวันเวลาไหนกันแน่",
			"THFemale": "อย่างไรก็ดี คุณทนายอย่าลืมเรียกถามให้ดิฉันเอาใบมรณะบัตรมาให้ ยืนยันว่าท่านเสียชีวิตวันเวลาไหนกันแน่",
			"EN": "Don't forget prove."
		},

	"GG_Mission6_22": {
			"THMale": "ทายาทคนอื่นๆมีใครบ้าง?",
			"THFemale": "ทายาทคนอื่นๆมีใครบ้าง?",
			"EN": "What about another desendants?"
		},
		"GG_Mission6_22_1": {
			"THMale": "ทายาทคนอื่นๆมีใครบ้าง?",
			"THFemale": "ทายาทคนอื่นๆมีใครบ้าง?",
			"EN": "What about another desendants?"
		},
		"GG_Mission6_22_2": {
			"THMale": "เท่าที่ดิฉันเข้าใจก็คือพวกเราสามคนพี่น้องนี้แหละค่ะ",
			"THFemale": "เท่าที่ดิฉันเข้าใจก็คือพวกเราสามคนพี่น้องนี้แหละค่ะ",
			"EN": "3 bro-sis"
		},
		"GG_Mission6_22_3": {
			"THMale": "แต่ถ้าคุณทนายหมายถึง คุณปู่ ย่า ตา ยาย ของดิฉัน",
			"THFemale": "แต่ถ้าคุณทนายหมายถึง คุณปู่ ย่า ตา ยาย ของดิฉัน",
			"EN": "about grand..."
		},
		"GG_Mission6_22_4": {
			"THMale": "ทุกท่านเสียชีวิตไปหมดทุกคนตั้งนานหลายปีแล้วค่ะ",
			"THFemale": "ทุกท่านเสียชีวิตไปหมดทุกคนตั้งนานหลายปีแล้วค่ะ",
			"EN": "all dead"
		},
		"GG_Mission6_22_5": {
			"THMale": "น่าจะดูได้จากทะเบียนบ้านหรือเปล่าคะ",
			"THFemale": "น่าจะดูได้จากทะเบียนบ้านหรือเปล่าคะ",
			"EN": "in dead prove"
		},
		"GG_Mission6_22_6": {
			"THMale": "แต่เดี๋ยวคุณทนายจะไม่เชื่อ ไว้เจอกันคราวหน้าอย่าลืมถามดิฉัน เรื่องปู่ย่าตายายพร้อมหลักฐานสำคัญอีกทีนะคะ",
			"THFemale": "แต่เดี๋ยวคุณทนายจะไม่เชื่อ ไว้เจอกันคราวหน้าอย่าลืมถามดิฉัน เรื่องปู่ย่าตายายพร้อมหลักฐานสำคัญอีกทีนะคะ",
			"EN": "If you don't believe me"
		},
		"GG_Mission6_22_7": {
			"THMale": "ดิฉันจะไปเตรียมข้อมูลทั้งหมด แล้วก็ลองถามจากพี่น้องดิฉันอีกสองคนที่เหลือด้วยก็ได้",
			"THFemale": "ดิฉันจะไปเตรียมข้อมูลทั้งหมด แล้วก็ลองถามจากพี่น้องดิฉันอีกสองคนที่เหลือด้วยก็ได้",
			"EN": "I'll prepare information."
		},
		"GG_Mission6_22_8": {
			"THMale": "ผมขอเบอร์โทรของพี่น้องคุณแพรวได้ไหมครับ?",
			"THFemale": "ฉันขอเบอร์โทรของพี่น้องคุณแพรวได้ไหมคะ?",
			"EN": "Can i have your bro-sis phone num?"
		},
		"GG_Mission6_22_9": {
			"THMale": "ได้ค่ะ(บอกเบอร์โทร) คนกลางชื่อมิ้ว คนเล็กชื่อเบียร์ค่ะ",
			"THFemale": "ได้ค่ะ(บอกเบอร์โทร) คนกลางชื่อมิ้ว คนเล็กชื่อเบียร์ค่ะ",
			"EN": "Yes, here"
		},
		"GG_Mission6_22_11": {
			"THMale": "ขอบคุณมากครับ",
			"THFemale": "ขอบคุณมากครับ",
			"EN": "Thank you"
		},
	"GG_Mission6_23": {
		"THMale": "เจ้ามรดกมีหนี้สินหรือไม่?",
		"THFemale": "เจ้ามรดกมีหนี้สินหรือไม่?",
		"EN": "Have a Rent?"
	},
		"GG_Mission6_23_1": {
			"THMale": "พ่อแม่ไม่มีหนี้สินที่ไหนแล้วค่ะ เพราะธุรกิจส่วนตัวที่ท่านทั้งสองคน ทำร่วมกันมานานก็ได้รับผลกำไรที่ดีมาตลอด",
			"THFemale": "พ่อแม่ไม่มีหนี้สินที่ไหนแล้วค่ะ เพราะธุรกิจส่วนตัวที่ท่านทั้งสองคน ทำร่วมกันมานานก็ได้รับผลกำไรที่ดีมาตลอด",
			"EN": "No."
		},
		"GG_Mission6_23_2": {
			"THMale": "เงินที่นำมาใช้ลงทุนเพิ่มเติมอะไรก็ใช้จากผลกำไรทั้งหมด ไม่เคยไปกู้ยืมที่ไหนเลยค่ะ",
			"THFemale": "เงินที่นำมาใช้ลงทุนเพิ่มเติมอะไรก็ใช้จากผลกำไรทั้งหมด ไม่เคยไปกู้ยืมที่ไหนเลยค่ะ",
			"EN": "All Profit"
		},


	//End Normal
	"GG_Mission6_24": {
		"THMale": "ขอโทษจริงๆค่ะคุณทนายดิฉันต้องไปแล้วค่ะหัวหน้าเรียกแล้ว",
		"THFemale": "ขอโทษจริงๆค่ะคุณทนายดิฉันต้องไปแล้วค่ะหัวหน้าเรียกแล้ว",
		"EN": "I need to go thank you."
	},
	"GG_Mission6_25": {
		"THMale": "(ตัดสาย)",
		"THFemale": "(ตัดสาย)",
		"EN": "(End call)"
	},
	"GG_Mission6_26": {
		"THMale": "โอเค...ต่อไปฉันต้องทำการประเมินข้อมูลคุณแพรวกับข้อกฏหมาย",
		"THFemale": "โอเค...ต่อไปฉันต้องทำการประเมินข้อมูลคุณแพรวกับข้อกฏหมาย",
		"EN": "Okay...I'll analyze."
	},

	//End Best Choice
	"GG_Mission6_27": {
		"THMale": "หื้มม...ไม่มีพินับกรรมอย่างนั้นหรือเพียงแค่นี้ก็เพียงพอแล้ว สำหรับกระบวนการทางกฏหมายของการจัดตั้งผู้จัดการมรดก",
		"THFemale": "หื้มม...ไม่มีพินับกรรมอย่างนั้นหรือเพียงแค่นี้ก็เพียงพอแล้ว สำหรับกระบวนการทางกฏหมายของการจัดตั้งผู้จัดการมรดก",
		"EN": "No testament hmm... It's enough evidence."
	},
	"GG_Mission6_28": {
		"THMale": "คุณได้เลือกคำถามเรื่องพินัยกรรมเป็นอันดับแรก",
		"THFemale": "คุณได้เลือกคำถามเรื่องพินัยกรรมเป็นอันดับแรก",
		"EN": "You choose question about testament for first time."
	},
	"GG_Mission6_29": {
		"THMale": "ซึ่งข้อมูลที่ได้มาทำให้คำถามข้ออื่นไม่จำเป็นอีกต่อไป",
		"THFemale": "ซึ่งข้อมูลที่ได้มาทำให้คำถามข้ออื่นไม่จำเป็นอีกต่อไป",
		"EN": "Make all question isn't nesesory anymore."
	},
	"GG_Mission6_30": {
		"THMale": "ขอโทษจริงๆค่ะคุณทนายดิฉันต้องไปแล้วค่ะหัวหน้าเรียกแล้ว ยังไงดิฉัรจะให้เบอร์ติดต่อน้องๆดิฉันไปนะคะ",
		"THFemale": "ขอโทษจริงๆค่ะคุณทนายดิฉันต้องไปแล้วค่ะหัวหน้าเรียกแล้ว ยังไงดิฉัรจะให้เบอร์ติดต่อน้องๆดิฉันไปนะคะ",
		"EN": "Sorry, I need to go."
	},
	"GG_Mission6_31": {
		"THMale": "ขอโทษจริงๆค่ะคุณทนายดิฉันต้องไปแล้วค่ะหัวหน้าเรียกแล้ว ยังไงดิฉัรจะให้เบอร์ติดต่อน้องๆดิฉันไปนะคะ",
		"THFemale": "ขอโทษจริงๆค่ะคุณทนายดิฉันต้องไปแล้วค่ะหัวหน้าเรียกแล้ว ยังไงดิฉัรจะให้เบอร์ติดต่อน้องๆดิฉันไปนะคะ",
		"EN": "Sorry, I need to go."
	},

	//GG_Mission6_22_9-10
	//GG_Mission6_25-26

}